<?xml version="1.0" encoding="UTF-8"?>
<symbol version="7" name="char_bank">
    <symboltype>BLOCK</symboltype>
    <timestamp>2019-2-8T9:51:10</timestamp>
    <pin polarity="Input" x="0" y="80" name="addra[6:0]" />
    <pin polarity="Input" x="0" y="240" name="rsta" />
    <pin polarity="Input" x="0" y="272" name="clka" />
    <pin polarity="Output" x="576" y="80" name="douta[0:0]" />
    <graph>
        <text style="fontsize:40;fontname:Arial" x="32" y="32">char_bank</text>
        <rect width="512" x="32" y="32" height="1344" />
        <line x2="32" y1="80" y2="80" style="linewidth:W" x1="0" />
        <attrtext style="fontsize:24;fontname:Arial" attrname="PinName" x="36" y="80" type="pin addra[6:0]" />
        <line x2="32" y1="240" y2="240" x1="0" />
        <attrtext style="fontsize:24;fontname:Arial" attrname="PinName" x="36" y="240" type="pin rsta" />
        <line x2="32" y1="272" y2="272" x1="0" />
        <attrtext style="fontsize:24;fontname:Arial" attrname="PinName" x="36" y="272" type="pin clka" />
        <line x2="544" y1="80" y2="80" style="linewidth:W" x1="576" />
        <attrtext style="alignment:RIGHT;fontsize:24;fontname:Arial" attrname="PinName" x="540" y="80" type="pin douta[0:0]" />
    </graph>
</symbol>
